#include<stdio.h>

long aVeryBigSum(int t, long* arr) {

    long int s = 0;
    int i;
    for(i = 0;i < t;i++) {
    
        s = s+arr[i];
    }

    printf("%ld",s);

    return s;
}
int main() {
    int t,i;
    printf("Enter the number of term : \n");
    scanf("%d",&t);
    long int arr[1000];


    for(i = 0;i < t;i++) {
    
        scanf("%ld",&arr[i]);
    }

    printf("%ld",aVeryBigSum(t,arr));

}


================================C++==========================

#include <iostream>
using namespace std;

int main() {

    int n;
    unsigned long long int sum = 0;
    unsigned long long int in;

    cout << "Enter n";
    cin >> n;

    cout << "Enter num : ";
    for(int i = 0;i < n;i++) {

        cin >> in;
        sum += in;
    }
    cout << sum;
    cout << "\n";
    return 0;
}